{
    "app-id": "org.flatpak.Hello",
    "runtime": "org.freedesktop.Platform",
    "runtime-version": "19.08",
    "sdk": "org.freedesktop.Sdk",
    "command": "hello",
    "modules": [
        {
            "name": "hello",
            "buildsystem": "simple",
            "build-commands": [
                "install -D hello.sh /app/bin/hello"
            ],
            "sources": [
                {
                    "type": "file",
                    "path": "hello.sh"
                }
            ]
        }
    ]
}
